[gd_scene load_steps=3 format=2]

[ext_resource path="res://addons/their_temple_color_point_tiler/Ring/Ring.gd" type="Script" id=1]
[ext_resource path="res://Scenes/AreaRing/AreaRing.gd" type="Script" id=2]

[node name="AreaRing" type="Area2D"]
position = Vector2( 2404.91, 1064.78 )
script = ExtResource( 2 )
__meta__ = {
"_edit_group_": true
}

[node name="Ring" type="Node2D" parent="."]
script = ExtResource( 1 )
radius_start = 2401.0
radius_delta = 49.0
