[gd_scene load_steps=4 format=2]

[ext_resource path="res://Scenes/RedGraphBook/RedGraphBookSheet.png" type="Texture" id=1]
[ext_resource path="res://Scenes/RedGraphBook/RedGraphBook.gd" type="Script" id=2]

[sub_resource type="Animation" id=1]
resource_name = "Play"
length = 300.0
step = 4.0
tracks/0/type = "value"
tracks/0/path = NodePath(".:frame")
tracks/0/interp = 1
tracks/0/loop_wrap = true
tracks/0/imported = false
tracks/0/enabled = true
tracks/0/keys = {
"times": PoolRealArray( 0, 4, 8, 12, 16, 20, 24, 28, 32, 36, 40, 44, 48, 52, 56, 60, 64, 68, 72, 76, 80, 84, 88, 92, 96, 100, 104, 108, 112, 116, 120, 124, 128, 132, 136, 140, 144, 148, 152, 156, 160 ),
"transitions": PoolRealArray( 1, 1, 1, 1, 1, 1, 1, 1, 1, 1, 1, 1, 1, 1, 1, 1, 1, 1, 1, 1, 1, 1, 1, 1, 1, 1, 1, 1, 1, 1, 1, 1, 1, 1, 1, 1, 1, 1, 1, 1, 1 ),
"update": 1,
"values": [ 1, 2, 3, 4, 5, 6, 7, 8, 9, 10, 11, 12, 13, 14, 15, 16, 17, 18, 19, 20, 21, 22, 23, 24, 25, 26, 27, 28, 29, 30, 31, 32, 33, 34, 35, 36, 37, 38, 39, 40, 41 ]
}

[node name="7\?RedGraphBook" type="Sprite"]
position = Vector2( 368.15, 296.596 )
scale = Vector2( 2.29993, 1.85735 )
texture = ExtResource( 1 )
vframes = 6
hframes = 7
frame = 1
script = ExtResource( 2 )
speed = 8.0

[node name="AnimationPlayer" type="AnimationPlayer" parent="."]
anims/Play = SubResource( 1 )
[connection signal="animation_finished" from="AnimationPlayer" to="." method="_on_AnimationPlayer_animation_finished"]
