[gd_scene load_steps=3 format=2]

[ext_resource path="res://Components/Messaging/Messaging.gd" type="Script" id=1]
[ext_resource path="res://Components/Messaging/ping.wav" type="AudioStream" id=2]

[node name="Messaging" type="VBoxContainer"]
anchor_right = 1.0
anchor_bottom = 1.0
script = ExtResource( 1 )
__meta__ = {
"_edit_use_anchors_": false
}

[node name="RichTextLabel" type="RichTextLabel" parent="."]
margin_right = 1024.0
margin_bottom = 572.0
size_flags_vertical = 3
scroll_following = true
__meta__ = {
"_edit_use_anchors_": false
}

[node name="LineEdit" type="LineEdit" parent="."]
margin_top = 576.0
margin_right = 1024.0
margin_bottom = 600.0
align = 3
placeholder_text = "> HELP if7 you wo7uld lik7e      7"
caret_blink = true
caret_blink_speed = 0.5

[node name="AudioStreamPlayer" type="AudioStreamPlayer" parent="."]
stream = ExtResource( 2 )
[connection signal="text_entered" from="LineEdit" to="." method="_on_LineEdit_text_entered"]
