[gd_scene load_steps=8 format=2]

[ext_resource path="res://Scenes/Gwajjer/Gwajjer.tscn" type="PackedScene" id=1]
[ext_resource path="res://Scenes/GoddessGwaj/GoddessGwaj.tscn" type="PackedScene" id=2]
[ext_resource path="res://Scenes/RingShip/RingShip.tscn" type="PackedScene" id=3]
[ext_resource path="res://Scenes/TechBlocks/TechBlocks.tscn" type="PackedScene" id=4]
[ext_resource path="res://Scenes/Tin7Men/Tin7Men.tscn" type="PackedScene" id=5]
[ext_resource path="res://Levels/Level05/Level05.gd" type="Script" id=6]
[ext_resource path="res://Scenes/AreaRing/AreaRing.tscn" type="PackedScene" id=7]

[node name="Level05" type="Node2D"]
script = ExtResource( 6 )

[node name="TechBlocks" parent="." instance=ExtResource( 4 )]
tile_data = PoolIntArray( -2359311, 0, 262148, -2359310, 0, 262149, -2293778, 0, 4, -2293777, 0, 0, -2293776, 0, 0, -2293775, 0, 262144, -2293774, 0, 262145, -2293773, 0, 0, -2293772, 0, 0, -2293771, 0, 5, -2228243, 0, 4, -2228242, 0, 65541, -2228235, 0, 65540, -2228234, 0, 262150, -2228233, 0, 0, -2228232, 0, 0, -2228231, 0, 65537, -2162708, 0, 4, -2162707, 0, 65541, -2162698, 0, 2, -2162694, 0, 65536, -2162693, 0, 0, -2162692, 0, 0, -2162691, 0, 0, -2162690, 0, 65537, -2097172, 0, 2, -2097163, 0, 4, -2097162, 0, 65541, -2097153, 0, 65536, -2162688, 0, 0, -2162687, 0, 0, -2162686, 0, 0, -2162685, 0, 0, -2162684, 0, 65537, -2031636, 0, 2, -2031627, 0, 2, -2097147, 0, 65536, -2097146, 0, 0, -2097145, 0, 0, -2097144, 0, 0, -2097143, 0, 0, -2097142, 0, 0, -2097141, 0, 0, -2097140, 0, 0, -2097139, 0, 0, -2097138, 0, 0, -2097137, 0, 0, -2097136, 0, 0, -2097135, 0, 65537, -1966100, 0, 2, -1966091, 0, 2, -2031598, 0, 196610, -1900565, 0, 65536, -1900564, 0, 65541, -1900555, 0, 2, -1966061, 0, 3, -1835030, 0, 3, -1835019, 0, 65540, -1835018, 0, 5, -1900525, 0, 2, -1769494, 0, 65539, -1769482, 0, 2, -1834989, 0, 2, -1703959, 0, 3, -1703946, 0, 2, -1769472, 0, 4, -1769471, 0, 0, -1769470, 0, 0, -1769469, 0, 0, -1769468, 0, 0, -1769467, 0, 0, -1769466, 0, 0, -1769465, 0, 0, -1769464, 0, 5, -1769454, 0, 4, -1769453, 0, 65541, -1638424, 0, 4, -1638423, 0, 65541, -1638413, 0, 4, -1638412, 0, 0, -1638411, 0, 0, -1638410, 0, 65541, -1703936, 0, 2, -1703928, 0, 65540, -1703927, 0, 0, -1703926, 0, 0, -1703925, 0, 0, -1703924, 0, 0, -1703923, 0, 65537, -1703921, 0, 65536, -1703920, 0, 0, -1703919, 0, 0, -1703918, 0, 65541, -1572888, 0, 65539, -1572878, 0, 4, -1572877, 0, 65541, -1638400, 0, 2, -1638386, 0, 196610, -1507353, 0, 3, -1507343, 0, 4, -1507342, 0, 65541, -1572864, 0, 65540, -1572863, 0, 5, -1441818, 0, 4, -1441817, 0, 65541, -1441809, 0, 4, -1441808, 0, 0, -1441807, 0, 65541, -1507327, 0, 2, -1376282, 0, 2, -1376274, 0, 4, -1376273, 0, 65541, -1441791, 0, 65540, -1441790, 0, 0, -1441789, 0, 327680, -1441788, 0, 262149, -1310747, 0, 4, -1310746, 0, 65541, -1310739, 0, 4, -1310738, 0, 65541, -1310729, 0, 4, -1310728, 0, 0, -1310727, 0, 0, -1310726, 0, 5, -1376253, 0, 327684, -1376252, 0, 262145, -1376251, 0, 0, -1376250, 0, 0, -1376249, 0, 327680, -1376248, 0, 262149, -1245212, 0, 4, -1245211, 0, 65541, -1245203, 0, 2, -1245194, 0, 4, -1245193, 0, 65541, -1245190, 0, 65540, -1245189, 0, 0, -1245188, 0, 0, -1245187, 0, 5, -1310713, 0, 327684, -1310712, 0, 262145, -1310711, 0, 0, -1310710, 0, 0, -1310709, 0, 0, -1310708, 0, 0, -1310707, 0, 0, -1310706, 0, 5, -1179677, 0, 4, -1179676, 0, 65541, -1179667, 0, 2, -1179659, 0, 4, -1179658, 0, 65541, -1179651, 0, 65540, -1179650, 0, 5, -1245170, 0, 65540, -1245169, 0, 0, -1245168, 0, 65537, -1114141, 0, 2, -1114131, 0, 65539, -1114123, 0, 65539, -1114114, 0, 65540, -1114113, 0, 5, -1179631, 0, 65536, -1179630, 0, 0, -1179629, 0, 65537, -1048605, 0, 2, -1048596, 0, 196610, -1048588, 0, 3, -1048577, 0, 262146, -1114112, 0, 262149, -1114092, 0, 65536, -1114091, 0, 0, -1114090, 0, 0, -1114089, 0, 0, -1114088, 0, 0, -1114087, 0, 0, -1114086, 0, 65537, -983069, 0, 2, -983052, 0, 2, -983046, 0, 4, -983045, 0, 0, -983044, 0, 0, -983043, 0, 0, -983042, 0, 262150, -983041, 0, 262144, -1048576, 0, 327685, -1048549, 0, 65536, -1048548, 0, 0, -1048547, 0, 0, -1048546, 0, 0, -1048545, 0, 65537, -917533, 0, 2, -917516, 0, 2, -917510, 0, 2, -917506, 0, 2, -983008, 0, 65536, -983007, 0, 0, -983006, 0, 0, -983005, 0, 0, -983004, 0, 0, -983003, 0, 65537, -851997, 0, 65540, -851996, 0, 5, -851980, 0, 2, -851974, 0, 2, -851971, 0, 262148, -851970, 0, 196614, -851969, 0, 65537, -917497, 0, 262148, -917496, 0, 0, -917495, 0, 0, -917494, 0, 0, -917493, 0, 0, -917492, 0, 0, -917491, 0, 0, -917490, 0, 262149, -917466, 0, 196610, -786460, 0, 2, -786444, 0, 2, -786438, 0, 2, -786436, 0, 262148, -786435, 0, 196609, -786434, 0, 131075, -851961, 0, 131079, -851960, 0, 196611, -851959, 0, 196611, -851958, 0, 196611, -851957, 0, 196611, -851956, 0, 196611, -851955, 0, 196611, -851954, 0, 196608, -851953, 0, 0, -851952, 0, 0, -851951, 0, 0, -851950, 0, 262149, -851929, 0, 196610, -720924, 0, 2, -720908, 0, 2, -720902, 0, 327686, -720901, 0, 0, -720900, 0, 262144, -720899, 0, 6, -720898, 0, 327685, -786425, 0, 131079, -786424, 0, 196611, -786423, 0, 196611, -786422, 0, 196611, -786421, 0, 196611, -786420, 0, 196611, -786419, 0, 196611, -786418, 0, 196611, -786417, 0, 196611, -786416, 0, 196611, -786415, 0, 196611, -786414, 0, 131075, -786392, 0, 65536, -786391, 0, 5, -655388, 0, 2, -655372, 0, 2, -655366, 0, 2, -655363, 0, 65539, -720890, 0, 262148, -720889, 0, 196609, -720888, 0, 196611, -720887, 0, 196611, -720886, 0, 196611, -720885, 0, 196611, -720884, 0, 196611, -720883, 0, 196611, -720882, 0, 196611, -720881, 0, 196611, -720880, 0, 196611, -720879, 0, 196611, -720878, 0, 196608, -720877, 0, 0, -720876, 0, 0, -720875, 0, 0, -720874, 0, 0, -720873, 0, 0, -720872, 0, 0, -720871, 0, 0, -720870, 0, 0, -720869, 0, 0, -720868, 0, 0, -720867, 0, 262149, -720855, 0, 65539, -589852, 0, 262146, -589851, 0, 262149, -589837, 0, 4, -589836, 0, 65541, -589830, 0, 2, -655354, 0, 131079, -655353, 0, 196611, -655352, 0, 196611, -655351, 0, 196611, -655350, 0, 196611, -655349, 0, 196611, -655348, 0, 196611, -655347, 0, 196611, -655346, 0, 196611, -655345, 0, 196611, -655344, 0, 196611, -655343, 0, 196611, -655342, 0, 196611, -655341, 0, 196611, -655340, 0, 196611, -655339, 0, 196611, -655338, 0, 196611, -655337, 0, 196611, -655336, 0, 196611, -655335, 0, 196611, -655334, 0, 196611, -655333, 0, 196611, -655332, 0, 196611, -655331, 0, 196608, -655330, 0, 262149, -655318, 0, 3, -524323, 0, 4, -524322, 0, 0, -524321, 0, 262150, -524320, 0, 0, -524319, 0, 0, -524318, 0, 0, -524317, 0, 0, -524316, 0, 262144, -524315, 0, 262145, -524314, 0, 5, -524302, 0, 4, -524301, 0, 65541, -524295, 0, 262148, -524294, 0, 262147, -589818, 0, 131079, -589817, 0, 196611, -589816, 0, 196611, -589815, 0, 196611, -589814, 0, 196611, -589813, 0, 196611, -589812, 0, 196611, -589811, 0, 196611, -589810, 0, 196611, -589809, 0, 196611, -589808, 0, 196611, -589807, 0, 196611, -589806, 0, 196611, -589805, 0, 196611, -589804, 0, 196611, -589803, 0, 196611, -589802, 0, 196611, -589801, 0, 196611, -589800, 0, 196611, -589799, 0, 196611, -589798, 0, 196611, -589797, 0, 196611, -589796, 0, 196611, -589795, 0, 196611, -589794, 0, 131075, -589782, 0, 65539, -458788, 0, 4, -458787, 0, 65541, -458785, 0, 65539, -458778, 0, 65540, -458777, 0, 5, -458766, 0, 2, -458759, 0, 327684, -458758, 0, 327683, -524282, 0, 131079, -524281, 0, 196611, -524280, 0, 196611, -524279, 0, 196611, -524278, 0, 196611, -524277, 0, 196611, -524276, 0, 196611, -524275, 0, 196611, -524274, 0, 196611, -524273, 0, 196611, -524272, 0, 196611, -524271, 0, 196611, -524270, 0, 196611, -524269, 0, 196611, -524268, 0, 196611, -524267, 0, 196611, -524266, 0, 196611, -524265, 0, 196611, -524264, 0, 196611, -524263, 0, 196611, -524262, 0, 196611, -524261, 0, 196611, -524260, 0, 196611, -524259, 0, 131072, -524258, 0, 327685, -524245, 0, 3, -393252, 0, 2, -393250, 0, 196610, -393241, 0, 2, -393230, 0, 65540, -393229, 0, 5, -393222, 0, 65539, -458746, 0, 131079, -458745, 0, 196611, -458744, 0, 196611, -458743, 0, 196611, -458742, 0, 196611, -458741, 0, 196611, -458740, 0, 196611, -458739, 0, 196611, -458738, 0, 196611, -458737, 0, 196611, -458736, 0, 196611, -458735, 0, 196611, -458734, 0, 196611, -458733, 0, 196611, -458732, 0, 196611, -458731, 0, 196611, -458730, 0, 196611, -458729, 0, 196611, -458728, 0, 196611, -458727, 0, 196611, -458726, 0, 196611, -458725, 0, 196611, -458724, 0, 196611, -458723, 0, 131075, -458709, 0, 65539, -327723, 0, 4, -327722, 0, 0, -327721, 0, 0, -327720, 0, 0, -327719, 0, 0, -327718, 0, 0, -327717, 0, 0, -327716, 0, 131077, -327715, 0, 262149, -327705, 0, 65540, -327704, 0, 5, -327693, 0, 2, -393210, 0, 131079, -393209, 0, 196611, -393208, 0, 196611, -393207, 0, 196611, -393206, 0, 196611, -393205, 0, 196611, -393204, 0, 196611, -393203, 0, 196611, -393202, 0, 196611, -393201, 0, 196611, -393200, 0, 196611, -393199, 0, 196611, -393198, 0, 196611, -393197, 0, 196611, -393196, 0, 196611, -393195, 0, 196611, -393194, 0, 196611, -393193, 0, 196611, -393192, 0, 196611, -393191, 0, 196611, -393190, 0, 196611, -393189, 0, 196611, -393188, 0, 196611, -393187, 0, 131075, -393172, 0, 3, -262188, 0, 4, -262187, 0, 65541, -262180, 0, 327684, -262179, 0, 327685, -262168, 0, 327686, -262167, 0, 0, -262166, 0, 65537, -262157, 0, 2, -327675, 0, 262148, -327674, 0, 196609, -327673, 0, 196611, -327672, 0, 196611, -327671, 0, 196611, -327670, 0, 196611, -327669, 0, 196611, -327668, 0, 196611, -327667, 0, 196611, -327666, 0, 196611, -327665, 0, 196611, -327664, 0, 196611, -327663, 0, 196611, -327662, 0, 196611, -327661, 0, 196611, -327660, 0, 196611, -327659, 0, 196611, -327658, 0, 196611, -327657, 0, 196611, -327656, 0, 196611, -327655, 0, 196611, -327654, 0, 196611, -327653, 0, 196611, -327652, 0, 196611, -327651, 0, 131075, -327636, 0, 2, -196653, 0, 4, -196652, 0, 65541, -196639, 0, 196610, -196633, 0, 4, -196632, 0, 65541, -196622, 0, 65536, -196621, 0, 65541, -262141, 0, 262148, -262140, 0, 0, -262139, 0, 196609, -262138, 0, 196611, -262137, 0, 196611, -262136, 0, 196611, -262135, 0, 196611, -262134, 0, 196611, -262133, 0, 196611, -262132, 0, 196611, -262131, 0, 196611, -262130, 0, 196611, -262129, 0, 196611, -262128, 0, 196611, -262127, 0, 196611, -262126, 0, 196611, -262125, 0, 196611, -262124, 0, 196611, -262123, 0, 196611, -262122, 0, 196611, -262121, 0, 196611, -262120, 0, 196611, -262119, 0, 196611, -262118, 0, 196611, -262117, 0, 196611, -262116, 0, 196611, -262115, 0, 131075, -262100, 0, 2, -131117, 0, 2, -131097, 0, 2, -131088, 0, 4, -131087, 0, 65537, -196605, 0, 131079, -196604, 0, 196611, -196603, 0, 196611, -196602, 0, 196611, -196601, 0, 196611, -196600, 0, 196611, -196599, 0, 196611, -196598, 0, 196611, -196597, 0, 196611, -196596, 0, 196611, -196595, 0, 196611, -196594, 0, 196611, -196593, 0, 196611, -196592, 0, 196611, -196591, 0, 196611, -196590, 0, 196611, -196589, 0, 196611, -196588, 0, 131072, -196587, 0, 131074, -196586, 0, 131074, -196585, 0, 131074, -196584, 0, 131073, -196583, 0, 196611, -196582, 0, 196611, -196581, 0, 196611, -196580, 0, 196611, -196579, 0, 131075, -196564, 0, 2, -65581, 0, 2, -65576, 0, 196610, -65561, 0, 65539, -65553, 0, 4, -65552, 0, 65541, -131070, 0, 262148, -131069, 0, 196609, -131068, 0, 196611, -131067, 0, 196611, -131066, 0, 196611, -131065, 0, 196611, -131064, 0, 196611, -131063, 0, 196611, -131062, 0, 196611, -131061, 0, 196611, -131060, 0, 196611, -131059, 0, 196611, -131058, 0, 196611, -131057, 0, 196611, -131056, 0, 196611, -131055, 0, 196611, -131054, 0, 196611, -131053, 0, 196611, -131052, 0, 131075, -131048, 0, 327684, -131047, 0, 131074, -131046, 0, 131074, -131045, 0, 131074, -131044, 0, 131073, -131043, 0, 131075, -131028, 0, 65539, -45, 0, 2, -27, 0, 65536, -26, 0, 65537, -17, 0, 2, -65535, 0, 262148, -65534, 0, 196609, -65533, 0, 196611, -65532, 0, 196611, -65531, 0, 196611, -65530, 0, 196611, -65529, 0, 196611, -65528, 0, 196611, -65527, 0, 196611, -65526, 0, 196611, -65525, 0, 196611, -65524, 0, 196611, -65523, 0, 196611, -65522, 0, 196611, -65521, 0, 196611, -65520, 0, 196611, -65519, 0, 196611, -65518, 0, 196611, -65517, 0, 196611, -65516, 0, 196608, -65515, 0, 262149, -65508, 0, 327684, -65507, 0, 327685, -65491, 0, 3, 65491, 0, 2, 65499, 0, 3, 65519, 0, 65539, 65526, 0, 3, 0, 0, 262148, 1, 0, 196609, 2, 0, 196611, 3, 0, 196611, 4, 0, 196611, 5, 0, 196611, 6, 0, 196611, 7, 0, 196611, 8, 0, 196611, 9, 0, 196611, 10, 0, 196611, 11, 0, 196611, 12, 0, 196611, 13, 0, 196611, 14, 0, 196611, 15, 0, 196611, 16, 0, 196611, 17, 0, 196611, 18, 0, 196611, 19, 0, 196611, 20, 0, 196611, 21, 0, 131075, 45, 0, 65539, 131027, 0, 2, 131035, 0, 2, 131049, 0, 196610, 131054, 0, 3, 131062, 0, 262146, 131063, 0, 262149, 65536, 0, 131079, 65537, 0, 196611, 65538, 0, 196611, 65539, 0, 196611, 65540, 0, 196611, 65541, 0, 196611, 65542, 0, 196611, 65543, 0, 196611, 65544, 0, 196611, 65545, 0, 196611, 65546, 0, 196611, 65547, 0, 196611, 65548, 0, 196611, 65549, 0, 196611, 65550, 0, 196611, 65551, 0, 196611, 65552, 0, 196611, 65553, 0, 196611, 65554, 0, 196611, 65555, 0, 196611, 65556, 0, 196611, 65557, 0, 131075, 65580, 0, 3, 196563, 0, 2, 196571, 0, 65539, 196589, 0, 4, 196590, 0, 65541, 196597, 0, 262148, 196598, 0, 196612, 196599, 0, 327685, 131072, 0, 131079, 131073, 0, 196611, 131074, 0, 196611, 131075, 0, 196611, 131076, 0, 196611, 131077, 0, 196611, 131078, 0, 196611, 131079, 0, 196611, 131080, 0, 196611, 131081, 0, 196611, 131082, 0, 196611, 131083, 0, 196611, 131084, 0, 196611, 131085, 0, 196611, 131086, 0, 196611, 131087, 0, 196611, 131088, 0, 196611, 131089, 0, 196611, 131090, 0, 196611, 131091, 0, 196611, 131092, 0, 196611, 131093, 0, 131075, 131116, 0, 2, 262099, 0, 2, 262108, 0, 3, 262125, 0, 65539, 262133, 0, 327682, 262134, 0, 327685, 262143, 0, 262148, 196608, 0, 196609, 196609, 0, 196611, 196610, 0, 196611, 196611, 0, 196611, 196612, 0, 196611, 196613, 0, 196611, 196614, 0, 196611, 196615, 0, 196611, 196616, 0, 196611, 196617, 0, 196611, 196618, 0, 196611, 196619, 0, 196611, 196620, 0, 196611, 196621, 0, 196611, 196622, 0, 196611, 196623, 0, 196611, 196624, 0, 196611, 196625, 0, 196611, 196626, 0, 196611, 196627, 0, 196611, 196628, 0, 196611, 196629, 0, 131075, 196650, 0, 65536, 196651, 0, 262150, 196652, 0, 262151, 196653, 0, 5, 327635, 0, 2, 327644, 0, 65540, 327645, 0, 65537, 327659, 0, 65536, 327660, 0, 65537, 327669, 0, 2, 327679, 0, 131079, 262144, 0, 196611, 262145, 0, 196611, 262146, 0, 196611, 262147, 0, 196611, 262148, 0, 196611, 262149, 0, 196611, 262150, 0, 196611, 262151, 0, 196611, 262152, 0, 196611, 262153, 0, 196611, 262154, 0, 196611, 262155, 0, 196611, 262156, 0, 196611, 262157, 0, 196611, 262158, 0, 196611, 262159, 0, 196611, 262160, 0, 196611, 262161, 0, 196611, 262162, 0, 196611, 262163, 0, 196611, 262164, 0, 196611, 262165, 0, 131075, 262187, 0, 2, 262189, 0, 2, 393169, 0, 4, 393170, 0, 0, 393171, 0, 262151, 393172, 0, 5, 393177, 0, 196610, 393182, 0, 65536, 393183, 0, 262150, 393184, 0, 0, 393185, 0, 0, 393186, 0, 0, 393187, 0, 0, 393188, 0, 0, 393189, 0, 0, 393190, 0, 0, 393191, 0, 0, 393192, 0, 0, 393193, 0, 0, 393194, 0, 65537, 393200, 0, 196610, 393204, 0, 4, 393205, 0, 65541, 393215, 0, 131079, 327680, 0, 196611, 327681, 0, 196611, 327682, 0, 196611, 327683, 0, 196611, 327684, 0, 196611, 327685, 0, 196611, 327686, 0, 196611, 327687, 0, 196611, 327688, 0, 196611, 327689, 0, 196611, 327690, 0, 196611, 327691, 0, 196611, 327692, 0, 196611, 327693, 0, 196611, 327694, 0, 196611, 327695, 0, 196611, 327696, 0, 196611, 327697, 0, 196611, 327698, 0, 196611, 327699, 0, 196611, 327700, 0, 131072, 327701, 0, 327685, 327711, 0, 262148, 327712, 0, 262149, 327715, 0, 262148, 327716, 0, 262149, 327723, 0, 2, 327725, 0, 2, 458704, 0, 4, 458705, 0, 65541, 458708, 0, 2, 458719, 0, 2, 458740, 0, 2, 458751, 0, 131079, 393216, 0, 196611, 393217, 0, 196611, 393218, 0, 196611, 393219, 0, 196611, 393220, 0, 196611, 393221, 0, 196611, 393222, 0, 196611, 393223, 0, 196611, 393224, 0, 196611, 393225, 0, 196611, 393226, 0, 196611, 393227, 0, 196611, 393228, 0, 196611, 393229, 0, 196611, 393230, 0, 196611, 393231, 0, 196611, 393232, 0, 196611, 393233, 0, 196611, 393234, 0, 196611, 393235, 0, 196611, 393236, 0, 131075, 393247, 0, 327684, 393248, 0, 262145, 393249, 0, 0, 393250, 0, 0, 393251, 0, 262144, 393252, 0, 327685, 393258, 0, 65536, 393259, 0, 65541, 393261, 0, 2, 524239, 0, 4, 524240, 0, 65541, 524244, 0, 65540, 524245, 0, 5, 524255, 0, 65540, 524256, 0, 65537, 524275, 0, 262148, 524276, 0, 262147, 524287, 0, 131079, 458752, 0, 196611, 458753, 0, 196611, 458754, 0, 196611, 458755, 0, 196611, 458756, 0, 196611, 458757, 0, 196611, 458758, 0, 196611, 458759, 0, 196611, 458760, 0, 196611, 458761, 0, 196611, 458762, 0, 196611, 458763, 0, 196611, 458764, 0, 196611, 458765, 0, 196611, 458766, 0, 196611, 458767, 0, 196611, 458768, 0, 196611, 458769, 0, 196611, 458770, 0, 196611, 458771, 0, 131072, 458772, 0, 327685, 458797, 0, 2, 589774, 0, 4, 589775, 0, 65541, 589781, 0, 65540, 589782, 0, 5, 589793, 0, 196610, 589811, 0, 327682, 589812, 0, 327685, 589823, 0, 327684, 524288, 0, 131073, 524289, 0, 196611, 524290, 0, 196611, 524291, 0, 196611, 524292, 0, 196611, 524293, 0, 196611, 524294, 0, 196611, 524295, 0, 196611, 524296, 0, 196611, 524297, 0, 196611, 524298, 0, 196611, 524299, 0, 196611, 524300, 0, 196611, 524301, 0, 196611, 524302, 0, 196611, 524303, 0, 196611, 524304, 0, 196611, 524305, 0, 196611, 524306, 0, 131072, 524307, 0, 327685, 524315, 0, 65536, 524316, 0, 65537, 524320, 0, 196610, 524324, 0, 196610, 524328, 0, 3, 524333, 0, 2, 655310, 0, 2, 655318, 0, 65540, 655319, 0, 65537, 655330, 0, 65536, 655331, 0, 5, 655346, 0, 262148, 655347, 0, 262147, 589824, 0, 327684, 589825, 0, 131073, 589826, 0, 196611, 589827, 0, 196611, 589828, 0, 196611, 589829, 0, 196611, 589830, 0, 196611, 589831, 0, 196611, 589832, 0, 196611, 589833, 0, 196611, 589834, 0, 196611, 589835, 0, 196611, 589836, 0, 196611, 589837, 0, 196611, 589838, 0, 196611, 589839, 0, 196611, 589840, 0, 196611, 589841, 0, 196611, 589842, 0, 131075, 589864, 0, 2, 589869, 0, 2, 720846, 0, 2, 720867, 0, 2, 720874, 0, 196610, 720882, 0, 327682, 720883, 0, 327685, 655361, 0, 327684, 655362, 0, 131073, 655363, 0, 196611, 655364, 0, 196611, 655365, 0, 196611, 655366, 0, 196611, 655367, 0, 196611, 655368, 0, 196611, 655369, 0, 196611, 655370, 0, 196611, 655371, 0, 196611, 655372, 0, 196611, 655373, 0, 196611, 655374, 0, 196611, 655375, 0, 196611, 655376, 0, 196611, 655377, 0, 131072, 655378, 0, 327685, 655399, 0, 65536, 655400, 0, 65541, 655405, 0, 2, 786382, 0, 2, 786395, 0, 196610, 786402, 0, 262148, 786403, 0, 7, 786404, 0, 262149, 786418, 0, 2, 720898, 0, 131079, 720899, 0, 196611, 720900, 0, 196611, 720901, 0, 196611, 720902, 0, 196611, 720903, 0, 196611, 720904, 0, 196611, 720905, 0, 196611, 720906, 0, 196611, 720907, 0, 196611, 720908, 0, 196611, 720909, 0, 196611, 720910, 0, 196611, 720911, 0, 196611, 720912, 0, 196611, 720913, 0, 131075, 720941, 0, 2, 851918, 0, 2, 851937, 0, 4, 851938, 0, 262144, 851939, 0, 131073, 851940, 0, 196608, 851941, 0, 262149, 851954, 0, 2, 786434, 0, 327684, 786435, 0, 131074, 786436, 0, 131074, 786437, 0, 131073, 786438, 0, 196611, 786439, 0, 196611, 786440, 0, 196611, 786441, 0, 196611, 786442, 0, 196611, 786443, 0, 196611, 786444, 0, 196611, 786445, 0, 196611, 786446, 0, 196611, 786447, 0, 196611, 786448, 0, 131072, 786449, 0, 327685, 786464, 0, 65536, 786465, 0, 0, 786466, 0, 0, 786467, 0, 65537, 786477, 0, 2, 917454, 0, 2, 917472, 0, 262148, 917473, 0, 262147, 917475, 0, 131079, 917476, 0, 196611, 917477, 0, 131075, 917490, 0, 2, 851973, 0, 327684, 851974, 0, 131073, 851975, 0, 196611, 851976, 0, 196611, 851977, 0, 196611, 851978, 0, 196611, 851979, 0, 196611, 851980, 0, 196611, 851981, 0, 196611, 851982, 0, 131072, 851983, 0, 131074, 851984, 0, 327685, 852013, 0, 2, 982990, 0, 2, 983007, 0, 4, 983008, 0, 262144, 983009, 0, 196615, 983010, 0, 0, 983011, 0, 262144, 983012, 0, 131073, 983013, 0, 131075, 983020, 0, 262148, 983021, 0, 0, 983022, 0, 327681, 983023, 0, 0, 983024, 0, 0, 983025, 0, 0, 983026, 0, 327687, 917510, 0, 327684, 917511, 0, 131074, 917512, 0, 131074, 917513, 0, 131074, 917514, 0, 131074, 917515, 0, 131074, 917516, 0, 131074, 917517, 0, 131074, 917518, 0, 327685, 917549, 0, 65539, 1048526, 0, 65540, 1048527, 0, 0, 1048528, 0, 5, 1048542, 0, 4, 1048543, 0, 65541, 1048545, 0, 65539, 1048548, 0, 327682, 1048549, 0, 327685, 1048554, 0, 262148, 1048555, 0, 327681, 1048556, 0, 262144, 1048557, 0, 131074, 1048558, 0, 327685, 1048562, 0, 327686, 1048563, 0, 0, 1048564, 0, 5, 983084, 0, 3, 1114064, 0, 65540, 1114065, 0, 0, 1114066, 0, 0, 1114067, 0, 0, 1114068, 0, 0, 1114069, 0, 327680, 1114070, 0, 262149, 1114076, 0, 4, 1114077, 0, 0, 1114078, 0, 65541, 1114084, 0, 2, 1114090, 0, 327682, 1114091, 0, 327685, 1114097, 0, 4, 1114098, 0, 65541, 1114100, 0, 262146, 1114101, 0, 0, 1114102, 0, 327681, 1114103, 0, 0, 1114104, 0, 65537, 1048620, 0, 2, 1179605, 0, 327684, 1179606, 0, 262145, 1179607, 0, 0, 1179608, 0, 0, 1179609, 0, 0, 1179610, 0, 0, 1179611, 0, 0, 1179612, 0, 65541, 1179620, 0, 65540, 1179621, 0, 0, 1179622, 0, 0, 1179623, 0, 0, 1179624, 0, 0, 1179625, 0, 0, 1179626, 0, 65541, 1179633, 0, 2, 1179636, 0, 327684, 1179637, 0, 6, 1179638, 0, 327685, 1179641, 0, 65536, 1179642, 0, 262150, 1179643, 0, 0, 1179644, 0, 0, 1179645, 0, 0, 1179646, 0, 327680, 1179647, 0, 262149, 1114156, 0, 2, 1245169, 0, 65540, 1245170, 0, 5, 1245173, 0, 2, 1245178, 0, 65539, 1245182, 0, 327682, 1245183, 0, 327685, 1179651, 0, 262148, 1179652, 0, 262149, 1179673, 0, 65536, 1179674, 0, 0, 1179675, 0, 262150, 1179676, 0, 0, 1179677, 0, 65537, 1179692, 0, 2, 1310706, 0, 65540, 1310707, 0, 0, 1310708, 0, 0, 1310709, 0, 262151, 1310710, 0, 0, 1310711, 0, 5, 1310715, 0, 262148, 1310716, 0, 262149, 1310718, 0, 2, 1245186, 0, 65536, 1245187, 0, 65543, 1245188, 0, 131075, 1245211, 0, 2, 1245228, 0, 2, 1376247, 0, 65540, 1376248, 0, 0, 1376249, 0, 0, 1376250, 0, 0, 1376251, 0, 262144, 1376252, 0, 262145, 1376253, 0, 0, 1376254, 0, 262151, 1376255, 0, 0, 1310720, 0, 5, 1310723, 0, 131079, 1310724, 0, 131075, 1310736, 0, 4, 1310737, 0, 0, 1310738, 0, 0, 1310739, 0, 0, 1310740, 0, 65537, 1310747, 0, 2, 1310764, 0, 2, 1376256, 0, 2, 1376259, 0, 131079, 1376260, 0, 131075, 1376272, 0, 2, 1376277, 0, 65536, 1376278, 0, 0, 1376279, 0, 0, 1376280, 0, 0, 1376281, 0, 0, 1376282, 0, 0, 1376283, 0, 327687, 1376287, 0, 65536, 1376288, 0, 0, 1376289, 0, 65537, 1376296, 0, 65536, 1376297, 0, 65537, 1376300, 0, 2, 1441792, 0, 2, 1441795, 0, 131079, 1441796, 0, 65542, 1441797, 0, 0, 1441798, 0, 0, 1441799, 0, 0, 1441800, 0, 0, 1441801, 0, 0, 1441802, 0, 0, 1441803, 0, 0, 1441804, 0, 0, 1441805, 0, 0, 1441806, 0, 0, 1441807, 0, 0, 1441808, 0, 65541, 1441819, 0, 2, 1441836, 0, 2, 1507328, 0, 65540, 1507329, 0, 0, 1507330, 0, 0, 1507331, 0, 262144, 1507332, 0, 327685, 1507355, 0, 2, 1507367, 0, 65536, 1507368, 0, 0, 1507369, 0, 0, 1507370, 0, 0, 1507371, 0, 0, 1507372, 0, 65541, 1572891, 0, 65540, 1572892, 0, 0, 1572893, 0, 0, 1572894, 0, 0, 1572895, 0, 0, 1572896, 0, 0, 1572897, 0, 0, 1572898, 0, 0, 1572899, 0, 0, 1572900, 0, 0, 1572901, 0, 0, 1572902, 0, 65537 )

[node name="GoddessGwaj" parent="." instance=ExtResource( 2 )]
position = Vector2( 311.566, 119.31 )

[node name="Gwajjer" parent="." instance=ExtResource( 1 )]
position = Vector2( 138.291, 117.947 )

[node name="Gwajjer2" parent="." instance=ExtResource( 1 )]
position = Vector2( 513.444, 68.2978 )

[node name="Gwajjer3" parent="." instance=ExtResource( 1 )]
position = Vector2( 407.607, 237.347 )

[node name="Gwajjer4" parent="." instance=ExtResource( 1 )]
position = Vector2( 231.292, 320.903 )

[node name="RingShip" parent="." instance=ExtResource( 3 )]
position = Vector2( 1086.81, 141.2 )

[node name="Tin7Men" parent="." instance=ExtResource( 5 )]
position = Vector2( 876.116, 572.124 )

[node name="RemoteTransform2D" type="RemoteTransform2D" parent="Tin7Men"]
remote_path = NodePath("../../Camera2D")

[node name="Camera2D" type="Camera2D" parent="."]
position = Vector2( 876.116, 572.124 )
current = true

[node name="Gateway" parent="." instance=ExtResource( 7 )]
position = Vector2( -1448.32, 379.829 )

[node name="Ring" parent="Gateway" index="0"]
count = 6
radius_start = 49.0
radius_delta = 7.0
black_and_white = false
[connection signal="boarding_zone_entered" from="RingShip" to="." method="_on_RingShip_boarding_zone_entered"]
[connection signal="body_entered" from="Gateway" to="." method="_on_Gateway_body_entered"]

[editable path="Gwajjer"]

[editable path="Gwajjer3"]

[editable path="Gateway"]
