[gd_scene load_steps=2 format=2]

[ext_resource path="res://Levels/Story??/Story??.gd" type="Script" id=1]

[node name="Story\?\?" type="Node"]
script = ExtResource( 1 )
text = "Greetings...We were just enjoying the music.
"
