[gd_scene load_steps=2 format=2]

[ext_resource path="res://Scenes/ComputerHardware/hardware_transparent_bg.png" type="Texture" id=1]

[node name="ComputerHardware" type="Node2D"]

[node name="Sprite" type="Sprite" parent="."]
texture = ExtResource( 1 )
vframes = 5
hframes = 8
frame = 19
